[{
  "id": 1001,
  "calendarId": 1,
  "endDate": "2019-12-12T01:30:00.000Z",
  "startDate": "2019-12-12T00:30:00.000Z",
  "title": "Meet with Development"
}, {
  "id": 1002,
  "calendarId": 1,
  "endDate": "2019-12-12T03:00:00.000Z",
  "startDate": "2019-12-12T01:00:00.000Z",
  "title": "Review with Marketing"
}]